R portfolio Daniël Roodzant
…
0.1.10 J

mean_data_FLOW.062 <- scatter_FLOW.062 %>% 
  select(RawData, compName, compConcentration) %>% 
  group_by(compName) %>% 
  filter(compName == 'S-medium') %>% 
  summarise(mean_RawData = mean(RawData, na.rm = TRUE)) 
normalized_FLOW.062 <- scatter_FLOW.062 %>% 
  select(compName, compConcentration, RawData) %>%
  mutate(RawData_normalized = RawData / mean_data_FLOW.062$mean_RawData)
mean_normalized_FLOW.062 <- normalized_FLOW.062 %>% group_by(compName, compConcentration) %>%
  summarise(mean_RawData_normalized = mean(RawData_normalized, na.rm = TRUE))
mean_normalized_FLOW.062 

## # A tibble: 21 x 3
## # Groups:   compName [5]
##    compName                   compConcentration mean_RawData_normalized
##    <chr>                                  <dbl>                   <dbl>
##  1 2,6-diisopropylnaphthalene         0.0000499                   1.04 
##  2 2,6-diisopropylnaphthalene         0.000499                    0.967
##  3 2,6-diisopropylnaphthalene         0.00499                     0.875
##  4 2,6-diisopropylnaphthalene         0.0499                      0.687
##  5 2,6-diisopropylnaphthalene         0.499                       0.504
##  6 2,6-diisopropylnaphthalene         4.99                        0.470
##  7 decane                             0.0000499                   1.05 
##  8 decane                             0.000499                    1.08 
##  9 decane                             0.00499                     1.07 
## 10 decane                             0.0499                      0.991
## # … with 11 more rows
…
